--SECTION-A--
[17/Nov/2009:00:10:41 --0800] qYflqMCoeA8AABoJfdgAAAAG 10.11.12.13 43750 192.168.120.15 443

--SECTION-B--
POST /demo/merchant_prod_track.phpundefined=


--SECTION-F--


--SECTION-H--
Action: Intercepted (phase 2)
Stopwatch: 1258445441852840 3575 (622 3331 -)
Producer: ModSecurity for Apache/2.5.7 (http://www.modsecurity.org/); core ruleset/2.0.3.
Server: Apache


--SECTION-K--
SecAction "phase:1,t:none,pass,nolog,initcol:global=global,initcol:ip=%{remote_addr}"
SecRule "REQUEST_LINE" "!@rx ^(?:(?:[a-z]{3,10}\\s+(?:\\w{3,7}?://[\\w\\-\\./]*(?::\\d+)?)?/[^?#]*(?:\\?[^#\\s]*)?(?:#[\\S]*)?|connect (?:\\d{1,3}\\.){3}\\d{1,3}\\.?(?::\\d+)?|options \\*)\\s+[\\w\\./]+|get /[^?#]*(?:\\?[^#\\s]*)?(?:#[\\S]*)?)$" "phase:2,t:none,t:lowercase,block,nolog,auditlog,status:400,msg:'Invalid HTTP Request Line',id:960911,severity:4,setvar:tx.msg=%{rule.msg},setvar:tx.anomaly_score=+5,setvar:tx.protocol_violation_score=+1,setvar:tx.%{rule.id}-PROTOCOL_VIOLATION/INVALID_REQ-%{matched_var_name}=%{matched_var}"
SecRule "REQUEST_METHOD" "@rx ^POST$" "phase:2,chain,t:none,block,nolog,auditlog,status:400,msg:'POST request must have a Content-Length header',id:960012,tag:PROTOCOL_VIOLATION/EVASION,severity:4"
SecRule "&REQUEST_HEADERS:Content-Length" "@eq 0" "phase:2,pass,t:none,setvar:tx.msg=%{rule.msg},setvar:tx.anomaly_score=+5,setvar:tx.protocol_violation_score=+1,setvar:tx.%{rule.id}-PROTOCOL_VIOLATION/INVALID_HREQ-%{matched_var_name}=%{matched_var}"
SecRule "REQUEST_PROTOCOL" "@rx ^HTTP/0.9$" "phase:2,pass,t:none,nolog,auditlog,msg:'HTTP/0.9 Request Detected',id:960019,severity:4,setvar:tx.msg=%{rule.msg},setvar:tx.anomaly_score=+5,setvar:tx.protocol_violation_score=+1,setvar:tx.%{rule.id}-PROTOCOL_VIOLATION/INVALID_REQ-%{matched_var_name}=%{matched_var}"
SecRule "&REQUEST_HEADERS:Host" "@eq 0" "phase:2,skipAfter:END_HOST_CHECK,t:none,nolog,auditlog,msg:'Request Missing a Host Header',id:960008,tag:PROTOCOL_VIOLATION/MISSING_HEADER,severity:5,setvar:tx.msg=%{rule.msg},setvar:tx.anomaly_score=+5,setvar:tx.protocol_violation_score=+1,setvar:tx.%{rule.id}-PROTOCOL_VIOLATION/MISSING_HEADER-%{matched_var_name}=%{matched_var}"
SecRule "&REQUEST_HEADERS:Accept" "@eq 0" "phase:2,pass,chain,t:none,nolog,auditlog,msg:'Request Missing an Accept Header',severity:2,id:960015,tag:PROTOCOL_VIOLATION/MISSING_HEADER"
SecRule "REQUEST_METHOD" "!@rx ^OPTIONS$" "phase:2,skipAfter:END_ACCEPT_CHECK,t:none,setvar:tx.msg=%{rule.msg},setvar:tx.anomaly_score=+5,setvar:tx.protocol_violation_score=+1,setvar:tx.%{rule.id}-PROTOCOL_VIOLATION/MISSING_HEADER-%{matched_var_name}=%{matched_var}"
SecRule "&REQUEST_HEADERS:User-Agent" "@eq 0" "phase:2,skipAfter:END_UA_CHECK,t:none,nolog,auditlog,msg:'Request Missing a User Agent Header',id:960009,tag:PROTOCOL_VIOLATION/MISSING_HEADER,severity:5,setvar:tx.msg=%{rule.msg},setvar:tx.anomaly_score=+5,setvar:tx.protocol_violation_score=+1,setvar:tx.%{rule.id}-PROTOCOL_VIOLATION/MISSING_HEADER-%{matched_var_name}=%{matched_var}"
SecRule "&REQUEST_HEADERS:Content-Type" "@eq 0" "phase:2,pass,chain,t:none,nolog,auditlog,msg:'Request Containing Content, but Missing Content-Type header',id:960904,severity:5"
SecRule "REQUEST_METHOD" "!@rx ^(?:GET|HEAD|PROPFIND|OPTIONS)$" "phase:2,chain,t:none,block,nolog,auditlog,status:501,msg:'Request content type is not allowed by policy',id:960010,tag:POLICY/ENCODING_NOT_ALLOWED,severity:4"
SecRule "REQUEST_BODY|REQUEST_URI_RAW|ARGS|ARGS_NAMES|FILES|FILES_NAMES|XML:/*" "@rx (?:\\.\\s*\\w+\\W*=)|(?:\\W\\s*(?:location|document)\\s*\\W[^({[;]+[({[;])|(?:\\(\\w+\\?[:\\w]+\\))|(?:\\w{2,}\\s*=\\s*\\d+[^&\\w]\\w+)|(?:\\]\\s*\\(\\s*\\w+)" "phase:2,capture,multiMatch,t:none,t:urlDecodeUni,t:urlDecodeUni,t:htmlEntityDecode,t:replaceComments,t:compressWhiteSpace,t:lowercase,ctl:auditLogParts=+E,block,nolog,auditlog,msg:'Detects JavaScript location/document property access and window access obfuscation',id:phpids-23,tag:WEB_ATTACK,logdata:%{TX.0},severity:2,setvar:tx.msg=%{rule.msg},setvar:tx.anomaly_score=+20,setvar:tx.%{rule.id}-WEB_ATTACK-%{matched_var_name}=%{matched_var}"
SecRule "&TX:/SQL_INJECTION/" "@eq 0" "phase:2,t:none,nolog,skipAfter:END_SQL_INJECTION_WEAK"
SecAction "phase:2,nolog,skipAfter:END_XSS_REGEX"
SecRule "REQUEST_FILENAME" "!@pmFromFile modsecurity_46_et_sql_injection.data" "phase:2,nolog,t:none,t:urlDecodeUni,t:htmlEntityDecode,t:normalisePathWin,skipAfter:END_ET_SQLI_RULES"
SecRule "REQUEST_URI_RAW" "@rx (?i:\\.php)" "phase:2,chain,block,t:none,t:urlDecodeUni,t:htmlEntityDecode,t:normalisePathWin,capture,nolog,auditlog,logdata:%{TX.0},id:sid2003156,rev:3,msg:'ET WEB Crewbox Proxy Scan',tag:attempted-recon,tag:url,www.emergingthreats.net/cgi-bin/cvsweb.cgi/sigs/WEB/WEB_Apache_Open_Proxy"
SecRule "REQUEST_URI_RAW" "@rx (?i:\\.php)" "phase:2,chain,block,t:none,t:urlDecodeUni,t:htmlEntityDecode,t:normalisePathWin,capture,nolog,auditlog,logdata:%{TX.0},id:sid2002997,rev:4,msg:'ET WEB PHP Remote File Inclusion (monster list http)',tag:web-application-attack,tag:url,www.emergingthreats.net/cgi-bin/cvsweb.cgi/sigs/WEB/WEB_PHP"
SecRule "REQUEST_URI_RAW" "@rx (?i:\\.php)" "phase:2,chain,block,t:none,t:urlDecodeUni,t:htmlEntityDecode,t:normalisePathWin,capture,nolog,auditlog,logdata:%{TX.0},id:sid2003098,rev:4,msg:'ET WEB PHP Remote File Inclusion (monster list ftp)',tag:web-application-attack,tag:url,www.emergingthreats.net/cgi-bin/cvsweb.cgi/sigs/WEB/WEB_PHP"
SecRule "REQUEST_URI_RAW" "@rx (?i:\\.php)" "phase:2,chain,block,t:none,t:urlDecodeUni,t:htmlEntityDecode,t:normalisePathWin,capture,nolog,auditlog,logdata:%{TX.0},id:sid2003935,rev:3,msg:'ET WEB PHP Remote File Inclusion (monster list php)',tag:web-application-attack,tag:url,www.emergingthreats.net/cgi-bin/cvsweb.cgi/sigs/WEB/WEB_PHP"
SecRule "REQUEST_URI_RAW" "@rx (?i:\\.php)" "phase:2,chain,block,t:none,t:urlDecodeUni,t:htmlEntityDecode,t:normalisePathWin,capture,nolog,auditlog,logdata:%{TX.0},id:sid2009152,rev:4,msg:'ET WEB PHP Generic Remote File Include Attempt (HTTPS)',tag:web-application-attack,tag:url,www.emergingthreats.net/cgi-bin/cvsweb.cgi/sigs/WEB/WEB_RFI_Generic"
SecRule "REQUEST_URI_RAW" "@rx (?i:\\.php)" "phase:2,chain,block,t:none,t:urlDecodeUni,t:htmlEntityDecode,t:normalisePathWin,capture,nolog,auditlog,logdata:%{TX.0},id:sid2009153,rev:4,msg:'ET WEB PHP Generic Remote File Include Attempt (FTP)',tag:web-application-attack,tag:url,www.emergingthreats.net/cgi-bin/cvsweb.cgi/sigs/WEB/WEB_RFI_Generic"
SecRule "REQUEST_URI_RAW" "@rx (?i:\\.php)" "phase:2,chain,block,t:none,t:urlDecodeUni,t:htmlEntityDecode,t:normalisePathWin,capture,nolog,auditlog,logdata:%{TX.0},id:sid2009155,rev:5,msg:'ET WEB PHP Generic Remote File Include Attempt (FTPS)',tag:web-application-attack,tag:url,www.emergingthreats.net/cgi-bin/cvsweb.cgi/sigs/WEB/WEB_RFI_Generic"
SecRule "TX:ANOMALY_SCORE" "@ge 20" "phase:2,t:none,nolog,auditlog,deny,msg:'Anomaly Score Exceeded (score %{TX.ANOMALY_SCORE}): %{tx.msg}',setvar:tx.inbound_tx_msg=%{tx.msg}"


--SECTION-Z--
--SECTION-A--
[17/Nov/2009:00:10:41 --0800] qYflqMCoeA8AABoJfdgAAAAG 10.11.12.13 43750 192.168.120.15 443

--SECTION-B--
OPTIONS *
Host: www.jwall.org

--SECTION-F--


--SECTION-H--
Action: Intercepted (phase 2)
Stopwatch: 1258445441852840 3575 (622 3331 -)
Producer: ModSecurity for Apache/2.5.7 (http://www.modsecurity.org/); core ruleset/2.0.3.
Server: Apache


--SECTION-K--
SecAction "phase:1,t:none,pass,nolog,initcol:global=global,initcol:ip=%{remote_addr}"
SecRule "REQUEST_LINE" "!@rx ^(?:(?:[a-z]{3,10}\\s+(?:\\w{3,7}?://[\\w\\-\\./]*(?::\\d+)?)?/[^?#]*(?:\\?[^#\\s]*)?(?:#[\\S]*)?|connect (?:\\d{1,3}\\.){3}\\d{1,3}\\.?(?::\\d+)?|options \\*)\\s+[\\w\\./]+|get /[^?#]*(?:\\?[^#\\s]*)?(?:#[\\S]*)?)$" "phase:2,t:none,t:lowercase,block,nolog,auditlog,status:400,msg:'Invalid HTTP Request Line',id:960911,severity:4,setvar:tx.msg=%{rule.msg},setvar:tx.anomaly_score=+5,setvar:tx.protocol_violation_score=+1,setvar:tx.%{rule.id}-PROTOCOL_VIOLATION/INVALID_REQ-%{matched_var_name}=%{matched_var}"
SecRule "REQUEST_METHOD" "@rx ^POST$" "phase:2,chain,t:none,block,nolog,auditlog,status:400,msg:'POST request must have a Content-Length header',id:960012,tag:PROTOCOL_VIOLATION/EVASION,severity:4"
SecRule "&REQUEST_HEADERS:Content-Length" "@eq 0" "phase:2,pass,t:none,setvar:tx.msg=%{rule.msg},setvar:tx.anomaly_score=+5,setvar:tx.protocol_violation_score=+1,setvar:tx.%{rule.id}-PROTOCOL_VIOLATION/INVALID_HREQ-%{matched_var_name}=%{matched_var}"
SecRule "REQUEST_PROTOCOL" "@rx ^HTTP/0.9$" "phase:2,pass,t:none,nolog,auditlog,msg:'HTTP/0.9 Request Detected',id:960019,severity:4,setvar:tx.msg=%{rule.msg},setvar:tx.anomaly_score=+5,setvar:tx.protocol_violation_score=+1,setvar:tx.%{rule.id}-PROTOCOL_VIOLATION/INVALID_REQ-%{matched_var_name}=%{matched_var}"
SecRule "&REQUEST_HEADERS:Host" "@eq 0" "phase:2,skipAfter:END_HOST_CHECK,t:none,nolog,auditlog,msg:'Request Missing a Host Header',id:960008,tag:PROTOCOL_VIOLATION/MISSING_HEADER,severity:5,setvar:tx.msg=%{rule.msg},setvar:tx.anomaly_score=+5,setvar:tx.protocol_violation_score=+1,setvar:tx.%{rule.id}-PROTOCOL_VIOLATION/MISSING_HEADER-%{matched_var_name}=%{matched_var}"
SecRule "&REQUEST_HEADERS:Accept" "@eq 0" "phase:2,pass,chain,t:none,nolog,auditlog,msg:'Request Missing an Accept Header',severity:2,id:960015,tag:PROTOCOL_VIOLATION/MISSING_HEADER"
SecRule "REQUEST_METHOD" "!@rx ^OPTIONS$" "phase:2,skipAfter:END_ACCEPT_CHECK,t:none,setvar:tx.msg=%{rule.msg},setvar:tx.anomaly_score=+5,setvar:tx.protocol_violation_score=+1,setvar:tx.%{rule.id}-PROTOCOL_VIOLATION/MISSING_HEADER-%{matched_var_name}=%{matched_var}"
SecRule "&REQUEST_HEADERS:User-Agent" "@eq 0" "phase:2,skipAfter:END_UA_CHECK,t:none,nolog,auditlog,msg:'Request Missing a User Agent Header',id:960009,tag:PROTOCOL_VIOLATION/MISSING_HEADER,severity:5,setvar:tx.msg=%{rule.msg},setvar:tx.anomaly_score=+5,setvar:tx.protocol_violation_score=+1,setvar:tx.%{rule.id}-PROTOCOL_VIOLATION/MISSING_HEADER-%{matched_var_name}=%{matched_var}"
SecRule "&REQUEST_HEADERS:Content-Type" "@eq 0" "phase:2,pass,chain,t:none,nolog,auditlog,msg:'Request Containing Content, but Missing Content-Type header',id:960904,severity:5"
SecRule "REQUEST_METHOD" "!@rx ^(?:GET|HEAD|PROPFIND|OPTIONS)$" "phase:2,chain,t:none,block,nolog,auditlog,status:501,msg:'Request content type is not allowed by policy',id:960010,tag:POLICY/ENCODING_NOT_ALLOWED,severity:4"
SecRule "REQUEST_BODY|REQUEST_URI_RAW|ARGS|ARGS_NAMES|FILES|FILES_NAMES|XML:/*" "@rx (?:\\.\\s*\\w+\\W*=)|(?:\\W\\s*(?:location|document)\\s*\\W[^({[;]+[({[;])|(?:\\(\\w+\\?[:\\w]+\\))|(?:\\w{2,}\\s*=\\s*\\d+[^&\\w]\\w+)|(?:\\]\\s*\\(\\s*\\w+)" "phase:2,capture,multiMatch,t:none,t:urlDecodeUni,t:urlDecodeUni,t:htmlEntityDecode,t:replaceComments,t:compressWhiteSpace,t:lowercase,ctl:auditLogParts=+E,block,nolog,auditlog,msg:'Detects JavaScript location/document property access and window access obfuscation',id:phpids-23,tag:WEB_ATTACK,logdata:%{TX.0},severity:2,setvar:tx.msg=%{rule.msg},setvar:tx.anomaly_score=+20,setvar:tx.%{rule.id}-WEB_ATTACK-%{matched_var_name}=%{matched_var}"
SecRule "&TX:/SQL_INJECTION/" "@eq 0" "phase:2,t:none,nolog,skipAfter:END_SQL_INJECTION_WEAK"
SecAction "phase:2,nolog,skipAfter:END_XSS_REGEX"
SecRule "REQUEST_FILENAME" "!@pmFromFile modsecurity_46_et_sql_injection.data" "phase:2,nolog,t:none,t:urlDecodeUni,t:htmlEntityDecode,t:normalisePathWin,skipAfter:END_ET_SQLI_RULES"
SecRule "REQUEST_URI_RAW" "@rx (?i:\\.php)" "phase:2,chain,block,t:none,t:urlDecodeUni,t:htmlEntityDecode,t:normalisePathWin,capture,nolog,auditlog,logdata:%{TX.0},id:sid2003156,rev:3,msg:'ET WEB Crewbox Proxy Scan',tag:attempted-recon,tag:url,www.emergingthreats.net/cgi-bin/cvsweb.cgi/sigs/WEB/WEB_Apache_Open_Proxy"
SecRule "REQUEST_URI_RAW" "@rx (?i:\\.php)" "phase:2,chain,block,t:none,t:urlDecodeUni,t:htmlEntityDecode,t:normalisePathWin,capture,nolog,auditlog,logdata:%{TX.0},id:sid2002997,rev:4,msg:'ET WEB PHP Remote File Inclusion (monster list http)',tag:web-application-attack,tag:url,www.emergingthreats.net/cgi-bin/cvsweb.cgi/sigs/WEB/WEB_PHP"
SecRule "REQUEST_URI_RAW" "@rx (?i:\\.php)" "phase:2,chain,block,t:none,t:urlDecodeUni,t:htmlEntityDecode,t:normalisePathWin,capture,nolog,auditlog,logdata:%{TX.0},id:sid2003098,rev:4,msg:'ET WEB PHP Remote File Inclusion (monster list ftp)',tag:web-application-attack,tag:url,www.emergingthreats.net/cgi-bin/cvsweb.cgi/sigs/WEB/WEB_PHP"
SecRule "REQUEST_URI_RAW" "@rx (?i:\\.php)" "phase:2,chain,block,t:none,t:urlDecodeUni,t:htmlEntityDecode,t:normalisePathWin,capture,nolog,auditlog,logdata:%{TX.0},id:sid2003935,rev:3,msg:'ET WEB PHP Remote File Inclusion (monster list php)',tag:web-application-attack,tag:url,www.emergingthreats.net/cgi-bin/cvsweb.cgi/sigs/WEB/WEB_PHP"
SecRule "REQUEST_URI_RAW" "@rx (?i:\\.php)" "phase:2,chain,block,t:none,t:urlDecodeUni,t:htmlEntityDecode,t:normalisePathWin,capture,nolog,auditlog,logdata:%{TX.0},id:sid2009152,rev:4,msg:'ET WEB PHP Generic Remote File Include Attempt (HTTPS)',tag:web-application-attack,tag:url,www.emergingthreats.net/cgi-bin/cvsweb.cgi/sigs/WEB/WEB_RFI_Generic"
SecRule "REQUEST_URI_RAW" "@rx (?i:\\.php)" "phase:2,chain,block,t:none,t:urlDecodeUni,t:htmlEntityDecode,t:normalisePathWin,capture,nolog,auditlog,logdata:%{TX.0},id:sid2009153,rev:4,msg:'ET WEB PHP Generic Remote File Include Attempt (FTP)',tag:web-application-attack,tag:url,www.emergingthreats.net/cgi-bin/cvsweb.cgi/sigs/WEB/WEB_RFI_Generic"
SecRule "REQUEST_URI_RAW" "@rx (?i:\\.php)" "phase:2,chain,block,t:none,t:urlDecodeUni,t:htmlEntityDecode,t:normalisePathWin,capture,nolog,auditlog,logdata:%{TX.0},id:sid2009155,rev:5,msg:'ET WEB PHP Generic Remote File Include Attempt (FTPS)',tag:web-application-attack,tag:url,www.emergingthreats.net/cgi-bin/cvsweb.cgi/sigs/WEB/WEB_RFI_Generic"
SecRule "TX:ANOMALY_SCORE" "@ge 20" "phase:2,t:none,nolog,auditlog,deny,msg:'Anomaly Score Exceeded (score %{TX.ANOMALY_SCORE}): %{tx.msg}',setvar:tx.inbound_tx_msg=%{tx.msg}"


--SECTION-Z--
